Data Science: A Step-by-Step Guide
…
Computing and plotting unconditional means

Computing and plotting conditional means using a single predictor.

Computing and plotting conditional means using multiple predictors.

2.1 Dataset for this week

We will be working with a dataset put together by the census bureau that summarizes the characteristics of the 3,088 counties in the United States.

load("pd.Rdata")

pd

## # A tibble: 3,088 × 55
##     fips pop2013 pop2010_base popchange_pc pop2010 popu5 popu18 pop65p
## *  <chr>   <int>        <int>        <dbl>   <int> <dbl>  <dbl>  <dbl>
## 1  01001   55246        54571          1.2   54571   6.1   25.4   13.5
## 2  01003  195540       182265          7.3  182265   5.7   22.4   18.1
## 3  01005   27076        27457         -1.4   27457   5.8   21.1   15.9
## 4  01007   22512        22919         -1.8   22915   5.3   21.3   14.3
## 5  01009   57872        57322          1.0   57322   6.1   23.8   16.4
## 6  01011   10639        10915         -2.5   10914   6.3   21.0   14.6
## 7  01013   20265        20946         -3.3   20947   6.1   23.3   17.7
## 8  01015  116736       118572         -1.5  118572   5.8   22.2   15.5
## 9  01017   34162        34170          0.0   34215   5.9   21.4   17.8
## 10 01019   26203        25986          0.8   25989   4.8   20.7   20.1
## # ... with 3,078 more rows, and 47 more variables: female_pc <dbl>,
## #   white_pc <dbl>, black_pc <dbl>, am_ind_pc <dbl>, asian_pc <dbl>,
## #   hawaii_pi_pc <dbl>, twomore_race_pc <dbl>, hispanic_pc <dbl>,
## #   white_non_hispanic_pc <dbl>, same_house_pc <dbl>,
## #   foreign_born_pc <dbl>, other_eng_home_pc <dbl>, hs_grad_pc <dbl>,
## #   coll_grad_pc <dbl>, veterans <int>, travel_time <dbl>,
## #   housing_units <int>, homeown_rate <dbl>, house_unit_multi <dbl>,
## #   median_home_val <int>, households <int>, person_per_hh <dbl>,
## #   per_capita_inc <int>, median_hh_inc <int>,
…
The codebook for this dataset is stored as another dataset, labels_explain. The first column in this dataset is variable names, the second column is a full explanation of that variable.

## Full explanation of data
load("lab_explain.Rdata")

lab_explain

## # A tibble: 51 × 2
##         varname                                                      label
##          <fctr>                                                     <fctr>
## 1       pop2013                                  Population, 2013 estimate
## 2  pop2010_base                  Population, 2010 (April 1) estimates base
## 3  popchange_pc Population, percent change - April 1, 2010 to July 1, 2013
## 4       pop2010                                           Population, 2010
## 5         popu5                       Persons under 5 years, percent, 2013
## 6        popu18                      Persons under 18 years, percent, 2013
## 7        pop65p                   Persons 65 years and over, percent, 2013
## 8     female_pc                              Female persons, percent, 2013
## 9      white_pc                                 White alone, percent, 2013
## 10     black_pc             Black or African American alone, percent, 2013
## # ... with 41 more rows
…
