Data Science in Education: A Step-by-Step Guide
…
costt_4a: Average cost of attendance (tuition and room and board less all grant aid)

debt_mdn: Median debt of graduates

md_earn_ne_pg: Earnings of graduates who are not enrolled in higher education, six years after graduation

Looking at datasets

We can look at the first few rows and columns of sc by typing in the data name. We can look at the whole dataset using View.

## What does this data look like? Look at the first few rows, first few variables
sc

## # A tibble: 127 × 9
##    unitid                                            instnm stabbr  year
##     <int>                                             <chr>  <chr> <dbl>
## 1  446048                              Ave Maria University     FL  2009
## 2  443410                   DigiPen Institute of Technology     WA  2009
## 3  441186 San Diego State University-Imperial Valley Campus     CA  2009
## 4  404338                 Schiller International University     FL  2009
## 5  169442                      College for Creative Studies     MI  2009
## 6  168342                                  Williams College     MA  2009
## 7  167057             The New England Conservatory of Music     MA  2009
## 8  166027                                Harvard University     MA  2009
## 9  166683             Massachusetts Institute of Technology     MA  2009
## 10 168148                                  Tufts University     MA  2009
## # ... with 117 more rows, and 5 more variables: adm_rate <dbl>,
## #   sat_avg <dbl>, costt4_a <int>, debt_mdn <dbl>, md_earn_wne_p6 <int>
…
