Data Science in Education: A Step-by-Step Guide
…
at_sum<-at%>%
  group_by(EducationField,Gender,Department)%>%
  summarize(attr_avg=mean(attrit))

at_sum

## Source: local data frame [27 x 4]
## Groups: EducationField, Gender [?]
## 
##     EducationField Gender             Department  attr_avg
##              <chr>  <chr>                  <chr>     <dbl>
## 1  Human Resources Female        Human Resources 0.3750000
## 2  Human Resources   Male        Human Resources 0.2105263
## 3    Life Sciences Female        Human Resources 0.1111111
## 4    Life Sciences Female Research & Development 0.1445783
## 5    Life Sciences Female                  Sales 0.2000000
## 6    Life Sciences   Male        Human Resources 0.0000000
## 7    Life Sciences   Male Research & Development 0.1277372
## 8    Life Sciences   Male                  Sales 0.1882353
## 9        Marketing Female                  Sales 0.2173913
## 10       Marketing   Male                  Sales 0.2222222
## # ... with 17 more rows
…
3.4 Multiple Predictors for Conditional Means

Once you get past three variables, things can get difficult. One solution is to create a new factor with one level for every single level of the predictor variables.

##This gets a little nutty
at_sum<-at%>%
  group_by(BusinessTravel,Gender,MaritalStatus,WorkLifeBalance)%>%
  summarize(attr_avg=mean(attrit))%>%
  ungroup()%>%
  arrange(attr_avg)

at_sum

## # A tibble: 70 × 5
##    BusinessTravel Gender MaritalStatus WorkLifeBalance attr_avg
##             <chr>  <chr>         <chr>           <int>    <dbl>
## 1      Non-Travel Female      Divorced               2        0
## 2      Non-Travel Female      Divorced               3        0
## 3      Non-Travel Female      Divorced               4        0
## 4      Non-Travel Female       Married               1        0
## 5      Non-Travel Female       Married               2        0
## 6      Non-Travel Female       Married               3        0
## 7      Non-Travel Female       Married               4        0
## 8      Non-Travel Female        Single               1        0
## 9      Non-Travel Female        Single               3        0
## 10     Non-Travel   Male      Divorced               2        0
## # ... with 60 more rows
## One Solution

at_sum$grouping<-paste0(at_sum$BusinessTravel,
                       ", ",
                       at_sum$Gender,
                       ", ",
                       at_sum$MaritalStatus,
                       ", Work/Life:",
                       at_sum$WorkLifeBalance)

at_sum$grouping<-as.factor(at_sum$grouping)

at_sum%>%select(grouping,attr_avg)

## # A tibble: 70 × 2
##                                     grouping attr_avg
##                                       <fctr>    <dbl>
## 1  Non-Travel, Female, Divorced, Work/Life:2        0
## 2  Non-Travel, Female, Divorced, Work/Life:3        0
## 3  Non-Travel, Female, Divorced, Work/Life:4        0
## 4   Non-Travel, Female, Married, Work/Life:1        0
## 5   Non-Travel, Female, Married, Work/Life:2        0
## 6   Non-Travel, Female, Married, Work/Life:3        0
## 7   Non-Travel, Female, Married, Work/Life:4        0
## 8    Non-Travel, Female, Single, Work/Life:1        0
## 9    Non-Travel, Female, Single, Work/Life:3        0
## 10   Non-Travel, Male, Divorced, Work/Life:2        0
## # ... with 60 more rows
…
The other solution is to use facets, or lots of little graphs, which show how the pattern varies across different groups. In this case, our groups will be defined by gender and work/life balance.

## Using Facets

at_sum<-at%>%
  group_by(BusinessTravel,Gender,MaritalStatus,WorkLifeBalance)%>%
  summarize(attr_avg=mean(attrit))%>%
  ungroup()%>%
  arrange(attr_avg)

at_sum

## # A tibble: 70 × 5
##    BusinessTravel Gender MaritalStatus WorkLifeBalance attr_avg
##             <chr>  <chr>         <chr>           <int>    <dbl>
## 1      Non-Travel Female      Divorced               2        0
## 2      Non-Travel Female      Divorced               3        0
## 3      Non-Travel Female      Divorced               4        0
## 4      Non-Travel Female       Married               1        0
## 5      Non-Travel Female       Married               2        0
## 6      Non-Travel Female       Married               3        0
## 7      Non-Travel Female       Married               4        0
## 8      Non-Travel Female        Single               1        0
## 9      Non-Travel Female        Single               3        0
## 10     Non-Travel   Male      Divorced               2        0
## # ... with 60 more rows
…
